[{
  "name": "repo/fake",
  "language": "Python",
  "latest_tag": "1.2.1",
  "is_favourite": false
},
{
  "name": "repo/fake2",
  "language": "C#",
  "latest_tag": "1.7.1",
  "is_favourite": false
}]
